<svg xmlns="http://www.w3.org/2000/svg" xmlns:xlink="http://www.w3.org/1999/xlink" preserveAspectRatio="xMidYMid" width="191" height="237" viewBox="0 0 191 237">
  <defs>
    <style>
      .cls-1 {
        fill: url(#linear-gradient-1);
        opacity: 0.15;
      }

      .cls-1, .cls-2 {
        fill-rule: evenodd;
      }

      .cls-2 {
        fill: #57d5c9;
      }
    </style>

    <linearGradient id="linear-gradient-1" gradientUnits="userSpaceOnUse" x1="170.13" y1="237" x2="66.746" y2="150.25">
      <stop offset="0.25" stop-opacity="0"/>
      <stop offset="0.75" stop-opacity="0.6"/>
    </linearGradient>
  </defs>
  <g>
    <path d="M45.876,150.239 L190.994,159.778 L111.300,236.985 L45.876,150.239 Z" class="cls-1"/>
    <path d="M46.172,0.000 C20.672,0.000 0.001,20.669 0.001,46.166 C0.001,71.662 46.172,149.871 46.172,149.871 C46.172,149.871 92.341,71.662 92.341,46.166 C92.341,20.669 71.669,0.000 46.172,0.000 ZM46.172,62.278 C36.485,62.278 28.631,54.425 28.631,44.739 C28.631,35.053 36.485,27.199 46.172,27.199 C55.860,27.199 63.713,35.053 63.713,44.739 C63.713,54.425 55.860,62.278 46.172,62.278 Z" class="cls-2"/>
  </g>
</svg>
