<svg xmlns="http://www.w3.org/2000/svg" xmlns:xlink="http://www.w3.org/1999/xlink" preserveAspectRatio="xMidYMid" width="100" height="100" viewBox="0 0 100 100">
  <defs>
    <style>
      .cls-1 {
        fill: #fff;
        fill-rule: evenodd;
      }
    </style>
  </defs>
  <path d="M95.605,32.448 C98.548,36.272 100.018,41.218 100.012,46.188 C100.007,51.160 98.527,56.144 95.577,60.077 C94.388,61.661 92.169,62.006 90.622,60.837 C89.080,59.671 88.797,57.425 89.991,55.810 C93.881,50.557 93.890,41.938 90.006,36.910 C84.122,29.303 84.117,17.031 90.009,9.386 C90.606,8.608 91.459,8.148 92.357,8.033 C92.469,8.018 92.582,8.009 92.695,8.005 C92.808,8.002 92.922,8.004 93.035,8.011 C93.261,8.025 93.487,8.062 93.709,8.120 C94.154,8.238 94.582,8.444 94.968,8.743 C96.514,9.941 96.801,12.170 95.608,13.725 C91.719,18.787 91.719,27.405 95.605,32.448 ZM82.517,32.702 C88.405,40.353 88.394,52.462 82.502,60.529 C81.318,62.148 79.100,62.579 77.553,61.467 C76.013,60.361 75.730,58.126 76.922,56.470 C80.806,51.083 80.811,42.393 76.926,37.338 C71.042,29.674 71.020,17.032 76.914,9.391 C77.510,8.610 78.363,8.149 79.261,8.033 C79.373,8.018 79.486,8.009 79.599,8.005 C79.712,8.002 79.826,8.003 79.939,8.010 C80.166,8.025 80.392,8.061 80.614,8.120 C81.059,8.237 81.487,8.444 81.874,8.745 C83.420,9.945 83.707,12.182 82.514,13.751 C78.625,18.843 78.632,27.649 82.517,32.702 ZM99.424,71.287 C99.405,78.042 99.380,84.853 99.347,91.739 C99.338,93.644 97.871,95.109 96.070,94.995 C76.851,93.821 57.345,91.998 38.272,90.748 C38.505,86.076 38.606,79.201 38.632,71.081 C57.652,70.152 76.912,67.987 96.164,67.907 C97.969,67.898 99.430,69.420 99.424,71.287 ZM86.340,74.725 C86.327,79.124 86.311,83.502 86.291,87.850 C88.473,87.914 90.654,87.983 92.833,88.058 C92.851,83.575 92.866,79.100 92.878,74.633 C90.699,74.644 88.519,74.676 86.340,74.725 ZM10.182,89.457 C4.999,89.412 0.973,87.289 0.997,83.468 C1.011,81.971 1.014,80.358 1.007,78.644 C0.981,74.374 5.151,70.812 10.420,71.139 C17.625,71.573 24.884,71.578 32.182,71.344 C32.166,79.388 32.066,86.070 31.812,90.347 C24.512,89.922 17.288,89.602 10.182,89.457 Z" class="cls-1"/>
</svg>
