<svg xmlns="http://www.w3.org/2000/svg" width="1328" height="268" viewBox="0 0 1328 268">
  <metadata><?xpacket begin="﻿" id="W5M0MpCehiHzreSzNTczkc9d"?>
<x:xmpmeta xmlns:x="adobe:ns:meta/" x:xmptk="Adobe XMP Core 5.6-c138 79.159824, 2016/09/14-01:09:01        ">
   <rdf:RDF xmlns:rdf="http://www.w3.org/1999/02/22-rdf-syntax-ns#">
      <rdf:Description rdf:about=""/>
   </rdf:RDF>
</x:xmpmeta>
                                                                                                    
                                                                                                    
                                                                                                    
                                                                                                    
                                                                                                    
                                                                                                    
                                                                                                    
                                                                                                    
                                                                                                    
                                                                                                    
                                                                                                    
                                                                                                    
                                                                                                    
                                                                                                    
                                                                                                    
                                                                                                    
                                                                                                    
                                                                                                    
                                                                                                    
                                                                                                    
                           
<?xpacket end="w"?></metadata>
<defs>
    <style>
      .cls-1 {
        fill: #fff;
        fill-rule: evenodd;
      }
    </style>
  </defs>
  <g id="Artboard_1" data-name="Artboard 1">
    <path class="cls-1" d="M219.222,45.826h6.316a22.311,22.311,0,0,1,22.24,22.307V197.2a22.316,22.316,0,0,1-22.24,22.313H154.86c30.419-37.851,63.293-87.5,68.2-133.473a106.389,106.389,0,0,0,.708-11.31,93.545,93.545,0,0,0-4.549-28.906h0ZM106.844,219.515H63.612v21.118a12.569,12.569,0,0,1-20.326,9.926L4.815,220.321A12.323,12.323,0,0,1,0,210.4V58.436a12.607,12.607,0,0,1,12.57-12.609H41.859a93.533,93.533,0,0,0-4.549,28.906,104.609,104.609,0,0,0,.782,11.5c2.148,19.548,9.269,38.97,17.85,56.551,10.666,21.85,24.431,42.747,39.2,62.025C98.92,209.738,102.824,214.677,106.844,219.515ZM130.524,0A77.1,77.1,0,0,0,53.539,77.21a75.678,75.678,0,0,0,.666,9.623C60.777,147.1,125.572,216.65,125.572,216.65a12.628,12.628,0,0,0,3.3,2.684h0.064l2.148,0.674,2.137-.674H133.3a13.061,13.061,0,0,0,3.343-2.684s17.755-21.161,30.96-39.289c8.93-12.254,3.988-18.895-5.46-21.617-116.768-33.6-58.352-87.414-75-123.233,84.264,10.042,105.711,46.206,82.676,102.162-32.324-26.376-19.1-47.792-44.988-66.562,17.426,27.332,1.143,49.761,54.723,90.153,13.131-21.994,24.822-47.516,27.382-71.569a86.551,86.551,0,0,0,.615-9.485A77.119,77.119,0,0,0,130.524,0ZM1249.49,249.859v-41.31c7.15,6.61,17.88,11.332,31.26,11.332,28.23,0,47.25-21.337,47.25-50.975,0-30.016-19.02-51.352-47.25-51.352-14.69,0-25.61,5.665-32.39,13.405-2.45-9.251-9.04-13.591-19.21-13.591-8.65,0-16.94,3.019-19.01,4.53l1.32,15.857a18.056,18.056,0,0,1,10.54-3.586c6.21,0,7.91,4.344,7.91,11.135V249.859h19.58Zm-169.66-130.6h-19.59v10c-6.96-6.987-17.69-11.708-31.25-11.708-28.24,0-47.063,21.336-47.063,51.352,0,29.638,18.823,50.784,47.063,50.784a43.711,43.711,0,0,0,32.58-14.35c2.25,9.633,8.28,14.541,19.01,14.541a42.8,42.8,0,0,0,19.01-4.531l-1.32-15.671a19.856,19.856,0,0,1-10.54,3.4c-5.84,0-7.9-4.53-7.9-11.135V119.257h0Zm-19.59,72.305a37.419,37.419,0,0,1-26.16,11.135c-19.59,0-32.39-13.967-32.39-33.791,0-20.2,12.61-34.175,32.39-34.175,10.92,0,21.09,5.48,26.16,11.141v45.69h0Zm71.46,76.429h-19.58V145.3c0-6.791-1.7-11.135-7.91-11.135a18.056,18.056,0,0,0-10.54,3.586l-1.32-15.857c2.07-1.511,10.36-4.53,19.01-4.53,10.17,0,16.76,4.34,19.2,13.591,6.79-7.74,17.7-13.4,32.39-13.4,28.24,0,47.25,21.336,47.25,51.352,0,29.638-19.01,50.975-47.25,50.975-13.36,0-24.1-4.722-31.25-11.332v59.442h0Zm26.17-133.26a36.607,36.607,0,0,0-26.17,11.522v45.5a38.5,38.5,0,0,0,26.17,10.949c19.58,0,32.57-13.781,32.57-33.791,0-20.2-12.8-34.175-32.57-34.175h0Zm117.79,0c19.77,0,32.57,13.973,32.57,34.175,0,20.01-12.99,33.791-32.57,33.791a38.517,38.517,0,0,1-26.17-10.949V146.253A36.626,36.626,0,0,1,1275.66,134.731ZM861.752,119.066V217.8h31.626V158.9c2.825-5.666,9.035-12.276,17.891-12.276,10.719,0,16.559,6.987,16.559,19.638v25.485c0,20.2,9.047,27.942,24.854,27.942,9.607,0,18.072-1.889,23.341-4.149l-0.93-25.114a23.748,23.748,0,0,1-9.609,2.648c-4.9,0-6.019-4.159-6.019-9.061V160.975c0-24.164-10.739-43.612-36.154-43.612a40.39,40.39,0,0,0-29.933,12.652V119.066H861.752ZM372.673,217.8H404.3V78.547H372.673v60.535H312.237V89.428H280.6V217.8h31.637V166.64h60.436V217.8h0ZM497.6,185.9c-6.212,4.529-17.692,9.442-28.241,9.442-14.5,0-22.589-7.368-24.473-18.88h63.072c1.132-3.592,2.073-12.652,2.073-18.881,0-22.651-14.3-41.155-44.248-41.155-31.625,0-52.331,22.658-52.331,52.3,0,29.257,16.939,51.722,54.024,51.722,16.76,0,31.636-5.092,41.8-13.4L497.6,185.9h0Zm-15.057-29.454H445.457c1.5-8.684,8.475-15.861,20.135-15.861,11.681,0,16.95,5.67,16.95,13.6v2.265h0ZM532.525,217.8H564.15V166.263c0.943-10.195,5.079-19.638,16.749-19.638,9.418,0,17.893,3.023,18.834,4.344l3.958-28.885c-0.763-1.321-8.285-4.721-17.512-4.721-12.432,0-19.2,5.665-23.912,14.54-3.4-10.195-11.3-14.54-22.97-14.54s-22.59,3.214-23.341,4.154l0.93,24.922a24.46,24.46,0,0,1,9.609-2.451c5.078,0,6.03,3.963,6.03,9.055V217.8h0Zm185.891-49.464c0-29.824-18.452-50.974-45.56-50.974-11.861,0-21.468,4.345-28.049,10.387V77.64H613.171V217.8h31.636V208.74c6.21,6.61,15.246,10.95,28.049,10.95,27.108,0,45.56-21.522,45.56-51.353h0Zm-32.2,0c0,14.536-8.845,23.788-22.4,23.788a29.839,29.839,0,0,1-19.014-7.173V152.3a29.385,29.385,0,0,1,19.014-7.368c13.553,0,22.4,9.065,22.4,23.409h0Zm147.166-49.271H801.749v8.684c-6.21-6.605-15.628-10.387-27.859-10.387-26.927,0-45.379,21.336-45.379,51.357,0,29.638,18.452,50.784,45.379,50.784a38.639,38.639,0,0,0,30.124-13.973c3.385,9.819,11.109,14.159,22.4,14.159a68.489,68.489,0,0,0,23.532-4.149l-1.122-25.114a20.8,20.8,0,0,1-9.417,2.648c-4.709,0-6.021-4.159-6.021-9.061V119.066h0Zm-31.636,65.886a29.077,29.077,0,0,1-18.823,7.173c-13.554,0-22.219-9.252-22.219-23.4,0-14.541,8.476-23.792,22.219-23.792,7.344,0,14.877,3.209,18.823,7.177v32.847Z"/>
  </g>
</svg>
