<svg xmlns="http://www.w3.org/2000/svg" xmlns:xlink="http://www.w3.org/1999/xlink" preserveAspectRatio="xMidYMid" width="100" height="100" viewBox="0 0 100 100">
  <defs>
    <style>
      .cls-1 {
        fill: #fff;
        fill-rule: evenodd;
      }
    </style>
  </defs>
  <path d="M99.216,31.032 L82.074,67.594 C80.715,70.489 77.738,72.500 74.286,72.500 L20.001,72.500 C15.267,72.500 11.429,68.723 11.429,64.062 L11.429,22.215 L1.256,12.201 C0.480,11.438 0.001,10.383 0.001,9.218 C0.001,6.888 1.919,4.999 4.286,4.999 C5.469,4.999 6.541,5.472 7.316,6.236 L20.346,19.062 L91.429,19.062 C96.161,19.062 100.001,22.838 100.001,27.500 C100.001,28.760 99.719,29.956 99.216,31.032 ZM20.001,64.062 L74.286,64.062 L84.839,41.562 L20.001,41.562 L20.001,64.062 ZM91.429,27.500 L20.001,27.500 L20.001,33.125 L88.795,33.125 L91.435,27.495 L91.429,27.500 ZM22.858,78.125 C27.591,78.125 31.429,81.901 31.429,86.562 C31.429,91.223 27.591,95.000 22.858,95.000 C18.124,95.000 14.286,91.223 14.286,86.562 C14.286,81.901 18.124,78.125 22.858,78.125 ZM68.572,78.125 C73.304,78.125 77.143,81.901 77.143,86.562 C77.143,91.223 73.304,95.000 68.572,95.000 C63.840,95.000 60.001,91.223 60.001,86.562 C60.001,81.901 63.840,78.125 68.572,78.125 Z" class="cls-1"/>
</svg>
