<svg xmlns="http://www.w3.org/2000/svg" xmlns:xlink="http://www.w3.org/1999/xlink" preserveAspectRatio="xMidYMid" width="300" height="300" viewBox="0 0 300 300">
  <defs>
    <style>
      .cls-1 {
        fill: #fff;
        fill-rule: evenodd;
      }
    </style>
  </defs>
  <path d="M288.671,194.068 C288.671,194.068 291.194,229.606 258.111,229.606 L136.856,229.606 C136.856,229.606 129.356,228.184 124.040,234.871 L84.279,279.622 C84.279,279.622 77.974,284.456 75.735,276.002 L75.735,234.541 C75.735,234.541 75.677,229.935 69.163,229.935 L41.232,229.935 C41.232,229.935 11.000,229.628 11.000,199.004 L11.000,45.993 C11.000,45.993 12.588,19.010 41.889,19.010 L259.754,19.010 C259.754,19.010 289.000,17.267 289.000,52.903 C289.000,88.539 288.671,194.068 288.671,194.068 ZM217.158,68.199 L82.713,68.199 C75.547,68.199 69.738,74.016 69.738,81.192 C69.738,88.367 75.547,94.184 82.713,94.184 L217.158,94.184 C224.323,94.184 230.132,88.367 230.132,81.192 C230.132,74.016 224.323,68.199 217.158,68.199 ZM217.288,112.504 L82.583,112.504 C75.489,112.504 69.738,118.263 69.738,125.366 C69.738,132.470 75.489,138.229 82.583,138.229 L217.288,138.229 C224.382,138.229 230.132,132.470 230.132,125.366 C230.132,118.263 224.382,112.504 217.288,112.504 ZM217.288,154.989 L82.583,154.989 C75.489,154.989 69.738,160.748 69.738,167.852 C69.738,174.955 75.489,180.714 82.583,180.714 L217.288,180.714 C224.382,180.714 230.132,174.955 230.132,167.852 C230.132,160.748 224.382,154.989 217.288,154.989 Z" class="cls-1"/>
</svg>
