<svg xmlns="http://www.w3.org/2000/svg" xmlns:xlink="http://www.w3.org/1999/xlink" preserveAspectRatio="xMidYMid" width="100" height="100" viewBox="0 0 100 100">
  <defs>
    <style>
      .cls-1 {
        fill: #fff;
        fill-rule: evenodd;
      }
    </style>
  </defs>
  <path d="M50.001,100.000 C23.490,100.000 2.001,77.612 2.001,50.000 C2.001,22.388 23.490,-0.000 50.001,-0.000 C76.511,-0.000 98.001,22.388 98.001,50.000 C98.001,77.612 76.511,100.000 50.001,100.000 ZM50.001,9.375 C28.497,9.375 11.000,27.600 11.000,50.000 C11.000,72.400 28.497,90.625 50.001,90.625 C71.505,90.625 89.001,72.400 89.001,50.000 C89.001,27.600 71.505,9.375 50.001,9.375 ZM64.357,54.541 C62.909,59.515 59.138,63.445 54.358,64.953 L32.872,71.740 C32.597,71.826 32.304,71.875 32.001,71.875 C30.344,71.875 29.001,70.477 29.001,68.750 C29.001,68.432 29.046,68.127 29.129,67.840 L35.644,45.459 C37.093,40.484 40.863,36.554 45.643,35.046 L67.129,28.259 C67.404,28.173 67.697,28.125 68.000,28.125 C69.657,28.125 71.001,29.522 71.001,31.249 C71.001,31.567 70.955,31.872 70.872,32.159 L64.357,54.541 ZM50.001,43.749 C46.687,43.749 44.001,46.548 44.001,50.000 C44.001,53.451 46.687,56.250 50.001,56.250 C53.314,56.250 56.001,53.451 56.001,50.000 C56.001,46.548 53.314,43.749 50.001,43.749 Z" class="cls-1"/>
</svg>
