<svg xmlns="http://www.w3.org/2000/svg" xmlns:xlink="http://www.w3.org/1999/xlink" preserveAspectRatio="xMidYMid" width="300" height="300" viewBox="0 0 300 300">
  <defs>
    <style>
      .cls-1 {
        fill: #78909c;
        fill-rule: evenodd;
      }
    </style>
  </defs>
  <path d="M84.335,111.495 C84.335,108.627 84.580,105.362 85.077,101.700 C78.547,103.977 71.966,105.114 65.339,105.114 C59.501,105.114 53.616,104.052 47.680,101.923 C41.744,99.797 36.921,97.694 33.211,95.616 C29.501,93.538 27.349,92.500 26.755,92.500 C14.487,92.500 8.354,109.962 8.354,144.885 C8.354,152.602 11.122,158.464 16.664,162.470 C22.204,166.477 29.030,168.481 37.143,168.481 L57.029,168.481 C67.218,156.312 80.328,149.982 96.355,149.485 C88.341,137.910 84.335,125.247 84.335,111.495 L84.335,111.495 ZM254.772,228.657 C254.425,223.662 253.734,218.269 252.695,212.481 C251.656,206.694 250.344,201.328 248.762,196.380 C247.178,191.434 245.052,186.611 242.381,181.911 C239.710,177.213 236.642,173.206 233.180,169.890 C229.716,166.577 225.487,163.931 220.492,161.951 C215.495,159.973 209.979,158.983 203.945,158.983 C202.955,158.983 200.829,160.047 197.564,162.174 C194.299,164.302 190.687,166.677 186.731,169.297 C182.773,171.919 177.479,174.294 170.852,176.420 C164.223,178.549 157.545,179.611 150.818,179.611 C144.089,179.611 137.411,178.549 130.784,176.420 C124.155,174.294 118.861,171.919 114.905,169.297 C110.947,166.677 107.337,164.302 104.072,162.174 C100.807,160.047 98.678,158.983 97.691,158.983 C91.655,158.983 86.139,159.973 81.144,161.951 C76.147,163.931 71.918,166.577 68.456,169.890 C64.992,173.206 61.926,177.213 59.255,181.911 C56.584,186.611 54.455,191.434 52.874,196.380 C51.290,201.328 49.980,206.694 48.941,212.481 C47.902,218.269 47.209,223.662 46.864,228.657 C46.516,233.654 46.344,238.774 46.344,244.016 C46.344,255.888 49.954,265.261 57.177,272.138 C64.398,279.013 73.995,282.452 85.967,282.452 L215.669,282.452 C227.638,282.452 237.236,279.013 244.459,272.138 C251.679,265.261 255.292,255.888 255.292,244.016 C255.292,238.774 255.118,233.654 254.772,228.657 ZM65.339,16.519 C54.852,16.519 45.899,20.229 38.479,27.649 C31.059,35.069 27.349,44.024 27.349,54.509 C27.349,64.997 31.059,73.950 38.479,81.370 C45.899,88.790 54.852,92.500 65.339,92.500 C75.825,92.500 84.780,88.790 92.200,81.370 C99.620,73.950 103.330,64.997 103.330,54.509 C103.330,44.024 99.620,35.069 92.200,27.649 C84.780,20.229 75.825,16.519 65.339,16.519 ZM150.818,54.509 C135.088,54.509 121.657,60.074 110.527,71.204 C99.397,82.334 93.832,95.764 93.832,111.495 C93.832,127.225 99.397,140.655 110.527,151.785 C121.657,162.916 135.088,168.481 150.818,168.481 C166.548,168.481 179.979,162.916 191.109,151.785 C202.239,140.655 207.804,127.225 207.804,111.495 C207.804,95.764 202.239,82.334 191.109,71.204 C179.979,60.074 166.548,54.509 150.818,54.509 ZM274.881,92.500 C274.287,92.500 272.135,93.538 268.425,95.616 C264.715,97.694 259.892,99.797 253.956,101.923 C248.020,104.052 242.133,105.114 236.297,105.114 C229.667,105.114 223.089,103.977 216.559,101.700 C217.053,105.362 217.301,108.627 217.301,111.495 C217.301,125.247 213.294,137.910 205.281,149.485 C221.308,149.982 234.416,156.312 244.607,168.481 L264.493,168.481 C272.604,168.481 279.430,166.477 284.972,162.470 C290.511,158.464 293.282,152.602 293.282,144.885 C293.282,109.962 287.147,92.500 274.881,92.500 L274.881,92.500 ZM236.297,16.519 C225.809,16.519 216.856,20.229 209.436,27.649 C202.016,35.069 198.306,44.024 198.306,54.509 C198.306,64.997 202.016,73.950 209.436,81.370 C216.856,88.790 225.809,92.500 236.297,92.500 C246.782,92.500 255.737,88.790 263.157,81.370 C270.577,73.950 274.287,64.997 274.287,54.509 C274.287,44.024 270.577,35.069 263.157,27.649 C255.737,20.229 246.782,16.519 236.297,16.519 Z" class="cls-1"/>
</svg>
