<svg xmlns="http://www.w3.org/2000/svg" xmlns:xlink="http://www.w3.org/1999/xlink" preserveAspectRatio="xMidYMid" width="100" height="100" viewBox="0 0 100 100">
  <defs>
    <style>
      .cls-1 {
        fill: #fff;
        fill-rule: evenodd;
      }
    </style>
  </defs>
  <path d="M80.916,98.995 L20.083,98.995 C16.724,98.995 14.000,96.225 14.000,92.808 L14.000,15.464 C14.000,12.047 16.724,9.276 20.083,9.276 L29.208,9.276 L29.208,3.089 C29.208,1.379 30.569,-0.005 32.250,-0.005 L68.750,-0.005 C70.431,-0.005 71.791,1.379 71.791,3.089 L71.791,9.276 L80.916,9.276 C84.276,9.276 87.000,12.047 87.000,15.464 L87.000,92.808 C87.000,96.225 84.276,98.995 80.916,98.995 ZM62.666,9.276 L38.333,9.276 L38.333,18.558 L62.666,18.558 L62.666,9.276 ZM77.875,18.558 L71.791,18.558 L71.791,24.745 C71.791,26.455 70.431,27.839 68.750,27.839 L32.250,27.839 C30.569,27.839 29.208,26.455 29.208,24.745 L29.208,18.558 L23.125,18.558 L23.125,89.714 L77.875,89.714 L77.875,18.558 ZM68.750,46.401 L32.250,46.401 L32.250,37.120 L68.750,37.120 L68.750,46.401 ZM68.750,61.870 L32.250,61.870 L32.250,52.589 L68.750,52.589 L68.750,61.870 Z" class="cls-1"/>
</svg>
