<svg xmlns="http://www.w3.org/2000/svg" xmlns:xlink="http://www.w3.org/1999/xlink" preserveAspectRatio="xMidYMid" width="300" height="300" viewBox="0 0 300 300">
  <defs>
    <style>
      .cls-1 {
        fill: #78909c;
        fill-rule: evenodd;
      }
    </style>
  </defs>
  <path d="M97.124,152.615 C92.233,152.615 88.059,150.566 84.599,146.467 C81.139,142.369 79.409,137.426 79.409,131.632 C79.409,125.841 81.139,120.895 84.599,116.797 C88.059,112.698 92.233,110.649 97.124,110.649 C102.014,110.649 106.190,112.698 109.650,116.797 C113.110,120.895 114.840,125.841 114.840,131.632 C114.840,137.426 113.110,142.369 109.650,146.467 C106.190,150.566 102.014,152.615 97.124,152.615 ZM150.271,152.615 C145.379,152.615 141.205,150.566 137.745,146.467 C134.285,142.369 132.555,137.426 132.555,131.632 C132.555,125.841 134.285,120.895 137.745,116.797 C141.205,112.698 145.379,110.649 150.271,110.649 C155.160,110.649 159.336,112.698 162.796,116.797 C166.256,120.895 167.986,125.841 167.986,131.632 C167.986,137.426 166.256,142.369 162.796,146.467 C159.336,150.566 155.160,152.615 150.271,152.615 ZM203.417,152.615 C198.525,152.615 194.352,150.566 190.892,146.467 C187.432,142.369 185.702,137.426 185.702,131.632 C185.702,125.841 187.432,120.895 190.892,116.797 C194.352,112.698 198.525,110.649 203.417,110.649 C208.307,110.649 212.482,112.698 215.942,116.797 C219.402,120.895 221.133,125.841 221.133,131.632 C221.133,137.426 219.402,142.369 215.942,146.467 C212.482,150.566 208.307,152.615 203.417,152.615 ZM212.552,40.734 C193.543,31.390 172.783,26.719 150.271,26.719 C127.757,26.719 106.996,31.390 87.990,40.734 C68.981,50.078 53.943,62.811 42.871,78.929 C31.798,95.051 26.262,112.616 26.262,131.632 C26.262,147.262 30.114,161.987 37.819,175.810 C45.522,189.637 56.110,201.465 69.582,211.301 C69.119,215.563 68.544,219.525 67.852,223.185 C67.160,226.848 66.490,229.988 65.845,232.611 C65.199,235.234 64.275,237.857 63.077,240.480 C61.877,243.103 60.932,245.124 60.240,246.545 C59.548,247.964 58.441,249.685 56.918,251.709 C55.396,253.730 54.310,255.123 53.666,255.889 C53.019,256.652 51.843,257.938 50.137,259.741 C48.428,261.544 47.345,262.718 46.884,263.266 C44.670,265.668 43.746,267.692 44.116,269.331 C44.393,270.532 44.992,271.516 45.915,272.282 C46.837,273.045 47.853,273.373 48.960,273.265 C52.096,272.937 56.064,272.225 60.863,271.134 C85.036,265.013 105.104,252.500 121.068,233.595 C130.386,235.562 140.120,236.546 150.271,236.546 C172.783,236.546 193.543,231.874 212.552,222.530 C231.558,213.186 246.599,200.456 257.671,184.335 C268.743,168.216 274.279,150.648 274.279,131.632 C274.279,112.616 268.743,95.051 257.671,78.929 C246.599,62.811 231.558,50.078 212.552,40.734 Z" class="cls-1"/>
</svg>
